<?xml version="1.0" encoding="UTF-8"?>
<!-- Generated by org.testng.reporters.JUnitReportReporter -->
<testsuite hostname="user" failures="0" tests="2" name="com.ReqRes.API.Automation.E01_Get_fetchUserList" time="3.202" errors="0" timestamp="2024-08-06T16:33:47 EEST" skipped="0">
  <testcase classname="com.ReqRes.API.Automation.E01_Get_fetchUserList" name="valid_getTheUserList" time="0.308">
    <system-out>
      <![CDATA[
[0;7m------------------------------------------------------------------------------------------------------------------------------------------------
                                        Starting Execution: '2 out of 2' test cases in the current suite                                        
                               Test Method: 'com.ReqRes.API.Automation.E01_Get_fetchUserList.valid_getTheUserList'                               
------------------------------------------------------------------------------------------------------------------------------------------------
[0m
[ReportManager] Response status code: "200", status line: "HTTP/1.1 200 OK" @06-08-2024 16:33:47.0590 PM
[ReportManager] Actual response status code "200" matches the expected one "200". @06-08-2024 16:33:47.0590 PM
[ReportManager] Handle response; GET | Target Status Code: 200 | Response Time: 241ms. @06-08-2024 16:33:47.0610 PM
[ReportManager] Assert that the API response Time is less than or equal to "3000". @06-08-2024 16:33:47.0613 PM
[ReportManager] Get response time; 241. @06-08-2024 16:33:47.0613 PM
[ReportManager] Expected "3000", and actual "241" @06-08-2024 16:33:47.0614 PM
[ReportManager] Expected "3000", and actual "241" @06-08-2024 16:33:47.0614 PM
[ReportManager] Assert that the API response Body contains "data". @06-08-2024 16:33:47.0617 PM
[ReportManager] Expected "data", and actual "{"page":1,"per_page":6,"total":12,"total_pages":2,"data":[{"id":1,"email":"george.bluth@reqres.in","first_name":"George","last_name":"Bluth","avatar":"https://reqres.in/img/faces/1-image.jpg"},{"id":2,"email":"janet.weaver@reqres.in","first_name":"Janet","last_name":"Weaver","avatar":"https://reqres.in/img/faces/2-image.jpg"},{"id":3,"email":"emma.wong@reqres.in","first_name":"Emma","last_name":"Wong","avatar":"https://reqres.in/img/faces/3-image.jpg"},{"id":4,"email":"eve.holt@reqres.in","first_name":"Eve","last_name":"Holt","avatar":"https://reqres.in/img/faces/4-image.jpg"},{"id":5,"email":"charles.morris@reqres.in","first_name":"Charles","last_name":"Morris","avatar":"https://reqres.in/img/faces/5-image.jpg"},{"id":6,"email":"tracey.ramos@reqres.in","first_name":"Tracey","last_name":"Ramos","avatar":"https://reqres.in/img/faces/6-image.jpg"}],"support":{"url":"https://reqres.in/#support-heading","text":"To keep ReqRes free, contributions towards server costs are appreciated!"}}" @06-08-2024 16:33:47.0619 PM
[ReportManager] Expected and Actual values are attached. @06-08-2024 16:33:47.0619 PM
[ReportManager] Successfully created attachment 'Validation Test Data - Expected Value' @06-08-2024 16:33:47.0621 PM
[ReportManager] Successfully created attachment 'Validation Test Data - Actual Value' @06-08-2024 16:33:47.0622 PM
[ReportManager] Expected "data", and actual "{"page":1,"per_page":6,"total":12,"total_pages":2,"data":[{"id":1,"email":"george.bluth@reqres.in","first_name":"George","last_name":"Bluth","avatar":"https://reqres.in/img/faces/1-image.jpg"},{"id":2,"email":"janet.weaver@reqres.in","first_name":"Janet","last_name":"Weaver","avatar":"https://reqres.in/img/faces/2-image.jpg"},{"id":3,"email":"emma.wong@reqres.in","first_name":"Emma","last_name":"Wong","avatar":"https://reqres.in/img/faces/3-image.jpg"},{"id":4,"email":"eve.holt@reqres.in","first_name":"Eve","last_name":"Holt","avatar":"https://reqres.in/img/faces/4-image.jpg"},{"id":5,"email":"charles.morris@reqres.in","first_name":"Charles","last_name":"Morris","avatar":"https://reqres.in/img/faces/5-image.jpg"},{"id":6,"email":"tracey.ramos@reqres.in","first_name":"Tracey","last_name":"Ramos","avatar":"https://reqres.in/img/faces/6-image.jpg"}],"support":{"url":"https://reqres.in/#support-heading","text":"To keep ReqRes free, contributions towards server costs are appreciated!"}}" @06-08-2024 16:33:47.0622 PM
[ReportManager] The Response body for fetching the user list is Not Null @06-08-2024 16:33:47.0623 PM
[ReportManager] Assert that the API response extracted value from the JSON path "page" is equal to "1". @06-08-2024 16:33:47.0624 PM
[ReportManager] Get response jsonvalue; page. @06-08-2024 16:33:47.0628 PM
[ReportManager] Expected "1", and actual "1" @06-08-2024 16:33:47.0630 PM
[ReportManager] Expected "1", and actual "1" @06-08-2024 16:33:47.0630 PM
[ReportManager] Successfully created attachment 'SHAFT Engine Logs - Current Method log: valid_getTheUserList' @06-08-2024 16:33:47.0632 PM

[0;7m------------------------------------------------------------------------------------------------------------------------------------------------
                    Finished Execution of Test Method: 'com.ReqRes.API.Automation.E01_Get_fetchUserList.valid_getTheUserList'                    
                                                              Test Status: 'Passed'                                                              
------------------------------------------------------------------------------------------------------------------------------------------------
[0m]]>
    </system-out>
  </testcase> <!-- valid_getTheUserList -->
  <testcase classname="com.ReqRes.API.Automation.E01_Get_fetchUserList" name="valid_fetchTheUserList" time="2.894">
    <system-out>
      <![CDATA[
[0;7m------------------------------------------------------------------------------------------------------------------------------------------------
                                        Starting Execution: '1 out of 2' test cases in the current suite                                        
                              Test Method: 'com.ReqRes.API.Automation.E01_Get_fetchUserList.valid_fetchTheUserList'                              
------------------------------------------------------------------------------------------------------------------------------------------------
[0m
[ReportManager] Response status code: "200", status line: "HTTP/1.1 200 OK" @06-08-2024 16:33:46.0233 PM
[ReportManager] Actual response status code "200" matches the expected one "200". @06-08-2024 16:33:46.0238 PM
[ReportManager] Handle response; GET | Target Status Code: 200 | Response Time: 720ms. @06-08-2024 16:33:47.0067 PM
[ReportManager] Assert that the API response Time is less than or equal to "3000". @06-08-2024 16:33:47.0097 PM
[ReportManager] Get response time; 720. @06-08-2024 16:33:47.0110 PM
[ReportManager] Expected "3000", and actual "720" @06-08-2024 16:33:47.0111 PM
[ReportManager] Expected "3000", and actual "720" @06-08-2024 16:33:47.0114 PM
[ReportManager] Assert that the API response Body contains "data". @06-08-2024 16:33:47.0118 PM
[ReportManager] Expected "data", and actual "{"page":2,"per_page":6,"total":12,"total_pages":2,"data":[{"id":7,"email":"michael.lawson@reqres.in","first_name":"Michael","last_name":"Lawson","avatar":"https://reqres.in/img/faces/7-image.jpg"},{"id":8,"email":"lindsay.ferguson@reqres.in","first_name":"Lindsay","last_name":"Ferguson","avatar":"https://reqres.in/img/faces/8-image.jpg"},{"id":9,"email":"tobias.funke@reqres.in","first_name":"Tobias","last_name":"Funke","avatar":"https://reqres.in/img/faces/9-image.jpg"},{"id":10,"email":"byron.fields@reqres.in","first_name":"Byron","last_name":"Fields","avatar":"https://reqres.in/img/faces/10-image.jpg"},{"id":11,"email":"george.edwards@reqres.in","first_name":"George","last_name":"Edwards","avatar":"https://reqres.in/img/faces/11-image.jpg"},{"id":12,"email":"rachel.howell@reqres.in","first_name":"Rachel","last_name":"Howell","avatar":"https://reqres.in/img/faces/12-image.jpg"}],"support":{"url":"https://reqres.in/#support-heading","text":"To keep ReqRes free, contributions towards server costs are appreciated!"}}" @06-08-2024 16:33:47.0121 PM
[ReportManager] Expected and Actual values are attached. @06-08-2024 16:33:47.0128 PM
[ReportManager] Successfully created attachment 'Validation Test Data - Expected Value' @06-08-2024 16:33:47.0130 PM
[ReportManager] Successfully created attachment 'Validation Test Data - Actual Value' @06-08-2024 16:33:47.0131 PM
[ReportManager] Expected "data", and actual "{"page":2,"per_page":6,"total":12,"total_pages":2,"data":[{"id":7,"email":"michael.lawson@reqres.in","first_name":"Michael","last_name":"Lawson","avatar":"https://reqres.in/img/faces/7-image.jpg"},{"id":8,"email":"lindsay.ferguson@reqres.in","first_name":"Lindsay","last_name":"Ferguson","avatar":"https://reqres.in/img/faces/8-image.jpg"},{"id":9,"email":"tobias.funke@reqres.in","first_name":"Tobias","last_name":"Funke","avatar":"https://reqres.in/img/faces/9-image.jpg"},{"id":10,"email":"byron.fields@reqres.in","first_name":"Byron","last_name":"Fields","avatar":"https://reqres.in/img/faces/10-image.jpg"},{"id":11,"email":"george.edwards@reqres.in","first_name":"George","last_name":"Edwards","avatar":"https://reqres.in/img/faces/11-image.jpg"},{"id":12,"email":"rachel.howell@reqres.in","first_name":"Rachel","last_name":"Howell","avatar":"https://reqres.in/img/faces/12-image.jpg"}],"support":{"url":"https://reqres.in/#support-heading","text":"To keep ReqRes free, contributions towards server costs are appreciated!"}}" @06-08-2024 16:33:47.0132 PM
[ReportManager] The Response body for fetching the user list is Not Null @06-08-2024 16:33:47.0132 PM
[ReportManager] Assert that the API response extracted value from the JSON path "page" is equal to "2". @06-08-2024 16:33:47.0134 PM
[ReportManager] Get response jsonvalue; page. @06-08-2024 16:33:47.0203 PM
[ReportManager] Expected "2", and actual "2" @06-08-2024 16:33:47.0203 PM
[ReportManager] Expected "2", and actual "2" @06-08-2024 16:33:47.0216 PM
[ReportManager] Successfully created attachment 'SHAFT Engine Logs - Current Method log: valid_fetchTheUserList' @06-08-2024 16:33:47.0223 PM

[0;7m------------------------------------------------------------------------------------------------------------------------------------------------
                   Finished Execution of Test Method: 'com.ReqRes.API.Automation.E01_Get_fetchUserList.valid_fetchTheUserList'                   
                                                              Test Status: 'Passed'                                                              
------------------------------------------------------------------------------------------------------------------------------------------------
[0m]]>
    </system-out>
  </testcase> <!-- valid_fetchTheUserList -->
  <system-out>
    <![CDATA[
[0;7m------------------------------------------------------------------------------------------------------------------------------------------------
                                                    Powered by [1mSHAFT v.8.3.20240803[22m                                                    
------------------------------------------------------------------------------------------------------------------------------------------------
[0m
[ReportManager] Checking for engine updates... @06-08-2024 16:33:43.0825 PM
[ReportManager] Initializing Summary Reporting Environment... @06-08-2024 16:33:43.0834 PM
[ReportManager] Initializing Allure Reporting Environment... @06-08-2024 16:33:43.0836 PM

[0;7m------------------------------------------------------------------------------------------------------------------------------------------------
                                             Starting execution of suite setup configuration method                                             
                                          'com.shaft.listeners.internal.ConfigurationHelper.suiteSetup'                                          
------------------------------------------------------------------------------------------------------------------------------------------------
[0m
[ReportManager] Initializing Important Links... @06-08-2024 16:33:44.0215 PM
[ReportManager] Initializing Properties... @06-08-2024 16:33:44.0232 PM

[0;7m------------------------------------------------------------------------------------------------------------------------------------------------
                                        Starting Execution: '1 out of 2' test cases in the current suite                                        
                              Test Method: 'com.ReqRes.API.Automation.E01_Get_fetchUserList.valid_fetchTheUserList'                              
------------------------------------------------------------------------------------------------------------------------------------------------
[0m
[ReportManager] Response status code: "200", status line: "HTTP/1.1 200 OK" @06-08-2024 16:33:46.0233 PM
[ReportManager] Actual response status code "200" matches the expected one "200". @06-08-2024 16:33:46.0238 PM
[ReportManager] Handle response; GET | Target Status Code: 200 | Response Time: 720ms. @06-08-2024 16:33:47.0067 PM
[ReportManager] Assert that the API response Time is less than or equal to "3000". @06-08-2024 16:33:47.0097 PM
[ReportManager] Get response time; 720. @06-08-2024 16:33:47.0110 PM
[ReportManager] Expected "3000", and actual "720" @06-08-2024 16:33:47.0111 PM
[ReportManager] Expected "3000", and actual "720" @06-08-2024 16:33:47.0114 PM
[ReportManager] Assert that the API response Body contains "data". @06-08-2024 16:33:47.0118 PM
[ReportManager] Expected "data", and actual "{"page":2,"per_page":6,"total":12,"total_pages":2,"data":[{"id":7,"email":"michael.lawson@reqres.in","first_name":"Michael","last_name":"Lawson","avatar":"https://reqres.in/img/faces/7-image.jpg"},{"id":8,"email":"lindsay.ferguson@reqres.in","first_name":"Lindsay","last_name":"Ferguson","avatar":"https://reqres.in/img/faces/8-image.jpg"},{"id":9,"email":"tobias.funke@reqres.in","first_name":"Tobias","last_name":"Funke","avatar":"https://reqres.in/img/faces/9-image.jpg"},{"id":10,"email":"byron.fields@reqres.in","first_name":"Byron","last_name":"Fields","avatar":"https://reqres.in/img/faces/10-image.jpg"},{"id":11,"email":"george.edwards@reqres.in","first_name":"George","last_name":"Edwards","avatar":"https://reqres.in/img/faces/11-image.jpg"},{"id":12,"email":"rachel.howell@reqres.in","first_name":"Rachel","last_name":"Howell","avatar":"https://reqres.in/img/faces/12-image.jpg"}],"support":{"url":"https://reqres.in/#support-heading","text":"To keep ReqRes free, contributions towards server costs are appreciated!"}}" @06-08-2024 16:33:47.0121 PM
[ReportManager] Expected and Actual values are attached. @06-08-2024 16:33:47.0128 PM
[ReportManager] Successfully created attachment 'Validation Test Data - Expected Value' @06-08-2024 16:33:47.0130 PM
[ReportManager] Successfully created attachment 'Validation Test Data - Actual Value' @06-08-2024 16:33:47.0131 PM
[ReportManager] Expected "data", and actual "{"page":2,"per_page":6,"total":12,"total_pages":2,"data":[{"id":7,"email":"michael.lawson@reqres.in","first_name":"Michael","last_name":"Lawson","avatar":"https://reqres.in/img/faces/7-image.jpg"},{"id":8,"email":"lindsay.ferguson@reqres.in","first_name":"Lindsay","last_name":"Ferguson","avatar":"https://reqres.in/img/faces/8-image.jpg"},{"id":9,"email":"tobias.funke@reqres.in","first_name":"Tobias","last_name":"Funke","avatar":"https://reqres.in/img/faces/9-image.jpg"},{"id":10,"email":"byron.fields@reqres.in","first_name":"Byron","last_name":"Fields","avatar":"https://reqres.in/img/faces/10-image.jpg"},{"id":11,"email":"george.edwards@reqres.in","first_name":"George","last_name":"Edwards","avatar":"https://reqres.in/img/faces/11-image.jpg"},{"id":12,"email":"rachel.howell@reqres.in","first_name":"Rachel","last_name":"Howell","avatar":"https://reqres.in/img/faces/12-image.jpg"}],"support":{"url":"https://reqres.in/#support-heading","text":"To keep ReqRes free, contributions towards server costs are appreciated!"}}" @06-08-2024 16:33:47.0132 PM
[ReportManager] The Response body for fetching the user list is Not Null @06-08-2024 16:33:47.0132 PM
[ReportManager] Assert that the API response extracted value from the JSON path "page" is equal to "2". @06-08-2024 16:33:47.0134 PM
[ReportManager] Get response jsonvalue; page. @06-08-2024 16:33:47.0203 PM
[ReportManager] Expected "2", and actual "2" @06-08-2024 16:33:47.0203 PM
[ReportManager] Expected "2", and actual "2" @06-08-2024 16:33:47.0216 PM
[ReportManager] Successfully created attachment 'SHAFT Engine Logs - Current Method log: valid_fetchTheUserList' @06-08-2024 16:33:47.0223 PM

[0;7m------------------------------------------------------------------------------------------------------------------------------------------------
                   Finished Execution of Test Method: 'com.ReqRes.API.Automation.E01_Get_fetchUserList.valid_fetchTheUserList'                   
                                                              Test Status: 'Passed'                                                              
------------------------------------------------------------------------------------------------------------------------------------------------
[0m

[0;7m------------------------------------------------------------------------------------------------------------------------------------------------
                                        Starting Execution: '2 out of 2' test cases in the current suite                                        
                               Test Method: 'com.ReqRes.API.Automation.E01_Get_fetchUserList.valid_getTheUserList'                               
------------------------------------------------------------------------------------------------------------------------------------------------
[0m
[ReportManager] Response status code: "200", status line: "HTTP/1.1 200 OK" @06-08-2024 16:33:47.0590 PM
[ReportManager] Actual response status code "200" matches the expected one "200". @06-08-2024 16:33:47.0590 PM
[ReportManager] Handle response; GET | Target Status Code: 200 | Response Time: 241ms. @06-08-2024 16:33:47.0610 PM
[ReportManager] Assert that the API response Time is less than or equal to "3000". @06-08-2024 16:33:47.0613 PM
[ReportManager] Get response time; 241. @06-08-2024 16:33:47.0613 PM
[ReportManager] Expected "3000", and actual "241" @06-08-2024 16:33:47.0614 PM
[ReportManager] Expected "3000", and actual "241" @06-08-2024 16:33:47.0614 PM
[ReportManager] Assert that the API response Body contains "data". @06-08-2024 16:33:47.0617 PM
[ReportManager] Expected "data", and actual "{"page":1,"per_page":6,"total":12,"total_pages":2,"data":[{"id":1,"email":"george.bluth@reqres.in","first_name":"George","last_name":"Bluth","avatar":"https://reqres.in/img/faces/1-image.jpg"},{"id":2,"email":"janet.weaver@reqres.in","first_name":"Janet","last_name":"Weaver","avatar":"https://reqres.in/img/faces/2-image.jpg"},{"id":3,"email":"emma.wong@reqres.in","first_name":"Emma","last_name":"Wong","avatar":"https://reqres.in/img/faces/3-image.jpg"},{"id":4,"email":"eve.holt@reqres.in","first_name":"Eve","last_name":"Holt","avatar":"https://reqres.in/img/faces/4-image.jpg"},{"id":5,"email":"charles.morris@reqres.in","first_name":"Charles","last_name":"Morris","avatar":"https://reqres.in/img/faces/5-image.jpg"},{"id":6,"email":"tracey.ramos@reqres.in","first_name":"Tracey","last_name":"Ramos","avatar":"https://reqres.in/img/faces/6-image.jpg"}],"support":{"url":"https://reqres.in/#support-heading","text":"To keep ReqRes free, contributions towards server costs are appreciated!"}}" @06-08-2024 16:33:47.0619 PM
[ReportManager] Expected and Actual values are attached. @06-08-2024 16:33:47.0619 PM
[ReportManager] Successfully created attachment 'Validation Test Data - Expected Value' @06-08-2024 16:33:47.0621 PM
[ReportManager] Successfully created attachment 'Validation Test Data - Actual Value' @06-08-2024 16:33:47.0622 PM
[ReportManager] Expected "data", and actual "{"page":1,"per_page":6,"total":12,"total_pages":2,"data":[{"id":1,"email":"george.bluth@reqres.in","first_name":"George","last_name":"Bluth","avatar":"https://reqres.in/img/faces/1-image.jpg"},{"id":2,"email":"janet.weaver@reqres.in","first_name":"Janet","last_name":"Weaver","avatar":"https://reqres.in/img/faces/2-image.jpg"},{"id":3,"email":"emma.wong@reqres.in","first_name":"Emma","last_name":"Wong","avatar":"https://reqres.in/img/faces/3-image.jpg"},{"id":4,"email":"eve.holt@reqres.in","first_name":"Eve","last_name":"Holt","avatar":"https://reqres.in/img/faces/4-image.jpg"},{"id":5,"email":"charles.morris@reqres.in","first_name":"Charles","last_name":"Morris","avatar":"https://reqres.in/img/faces/5-image.jpg"},{"id":6,"email":"tracey.ramos@reqres.in","first_name":"Tracey","last_name":"Ramos","avatar":"https://reqres.in/img/faces/6-image.jpg"}],"support":{"url":"https://reqres.in/#support-heading","text":"To keep ReqRes free, contributions towards server costs are appreciated!"}}" @06-08-2024 16:33:47.0622 PM
[ReportManager] The Response body for fetching the user list is Not Null @06-08-2024 16:33:47.0623 PM
[ReportManager] Assert that the API response extracted value from the JSON path "page" is equal to "1". @06-08-2024 16:33:47.0624 PM
[ReportManager] Get response jsonvalue; page. @06-08-2024 16:33:47.0628 PM
[ReportManager] Expected "1", and actual "1" @06-08-2024 16:33:47.0630 PM
[ReportManager] Expected "1", and actual "1" @06-08-2024 16:33:47.0630 PM
[ReportManager] Successfully created attachment 'SHAFT Engine Logs - Current Method log: valid_getTheUserList' @06-08-2024 16:33:47.0632 PM

[0;7m------------------------------------------------------------------------------------------------------------------------------------------------
                    Finished Execution of Test Method: 'com.ReqRes.API.Automation.E01_Get_fetchUserList.valid_getTheUserList'                    
                                                              Test Status: 'Passed'                                                              
------------------------------------------------------------------------------------------------------------------------------------------------
[0m

[0;7m------------------------------------------------------------------------------------------------------------------------------------------------
                                           Starting execution of engine tear down configuration method                                           
                                        'com.shaft.listeners.internal.ConfigurationHelper.engineTearDown'                                        
------------------------------------------------------------------------------------------------------------------------------------------------
[0m
[ReportManager] Successfully created attachment 'SHAFT Engine Logs - Execution log' @06-08-2024 16:33:47.0641 PM
[ReportManager] Successfully created attachment 'SHAFT Engine Logs - Execution log: 20240806-163347' @06-08-2024 16:33:47.0644 PM
[ReportManager] Successfully created attachment 'HTML - Checkpoints Report' @06-08-2024 16:33:47.0650 PM]]>
  </system-out>
</testsuite> <!-- com.ReqRes.API.Automation.E01_Get_fetchUserList -->
